{
  "forge_marker": 1,
  "defaults": {
    "model": "lucraftcore:suit_stand.obj",
    "textures": {
      "particle": "minecraft:blocks/iron_block"
    }
  },
  "variants": {
    "facing": {
      "east": {
        "y": 90
      },
      "west": {
        "y": 270
      },
      "north": {},
      "south": {
        "y": 180
      }
    },
    "part": {
      "bottom": {},
      "upper": {
        "model": "lucraftcore:empty_model"
      }
    },
    "inventory": [
      {
        "transform": {
          "thirdperson_lefthand": {
            "rotation": [
              {
                "x": 60
              },
              {
                "y": 0
              },
              {
                "z": 0
              }
            ],
            "translation": [
              0,
              0,
              0
            ],
            "scale": 0.5
          },
          "thirdperson_righthand": {
            "rotation": [
              {
                "x": 60
              },
              {
                "y": 0
              },
              {
                "z": 0
              }
            ],
            "translation": [
              0,
              0,
              0
            ],
            "scale": 0.5
          },
          "gui": {
            "rotation": [
              {
                "x": 30
              },
              {
                "y": 135
              },
              {
                "z": 0
              }
            ],
            "translation": [
              0,
              -0.15,
              0
            ],
            "scale": 0.5
          },
          "fixed": {
            "rotation": [
              {
                "x": 0
              },
              {
                "y": 0
              },
              {
                "z": 0
              }
            ],
            "translation": [
              0,
              -0.25,
              0
            ],
            "scale": 0.5
          },
          "firstperson_righthand": {
            "rotation": [
              {
                "x": 0
              },
              {
                "y": 180
              },
              {
                "z": 0
              }
            ],
            "translation": [
              0,
              0,
              0
            ],
            "scale": 0.5
          },
          "firstperson_lefthand": {
            "rotation": [
              {
                "x": 0
              },
              {
                "y": 180
              },
              {
                "z": 0
              }
            ],
            "translation": [
              0,
              0,
              0
            ],
            "scale": 0.5
          },
          "ground": {
            "rotation": [
              {
                "x": 0
              },
              {
                "y": 0
              },
              {
                "z": 0
              }
            ],
            "scale": 0.25
          }
        }
      }
    ]
  }
}